[{
        "id": "1",
        "Name": "Name 1",
        "price": 72,
        "note": "note 1"
    },
    {
        "id": "2",
        "Name": "Name 2",
        "price": 26,
        "note": "note 2"
    },
    {
        "id": "3",
        "Name": "Name 3",
        "price": 97,
        "note": "note 3"
    },
    {
        "id": "4",
        "Name": "Name 4",
        "price": 10,
        "note": "note 4"
    },
    {
        "id": "5",
        "Name": "Name 5",
        "price": 10,
        "note": "note 5"
    },
    {
        "id": "6",
        "Name": "Name 6",
        "price": 28,
        "note": "note 6"
    },
    {
        "id": "7",
        "Name": "Name 7",
        "price": 39,
        "note": "note 7"
    },
    {
        "id": "8",
        "Name": "Name 8",
        "price": 57,
        "note": "note 8"
    },
    {
        "id": "9",
        "Name": "Name 9",
        "price": 11,
        "note": "note 9"
    },
    {
        "id": "10",
        "Name": "Name 10",
        "price": 54,
        "note": "note 10"
    },
    {
        "id": "11",
        "Name": "Name 11",
        "price": 64,
        "note": "note 11"
    },
    {
        "id": "12",
        "Name": "Name 12",
        "price": 37,
        "note": "note 12"
    },
    {
        "id": "13",
        "Name": "Name 13",
        "price": 68,
        "note": "note 13"
    },
    {
        "id": "14",
        "Name": "Name 14",
        "price": 95,
        "note": "note 14"
    },
    {
        "id": "15",
        "Name": "Name 15",
        "price": 51,
        "note": "note 15"
    },
    {
        "id": "16",
        "Name": "Name 16",
        "price": 48,
        "note": "note 16"
    },
    {
        "id": "17",
        "Name": "Name 17",
        "price": 11,
        "note": "note 17"
    },
    {
        "id": "18",
        "Name": "Name 18",
        "price": 69,
        "note": "note 18"
    },
    {
        "id": "19",
        "Name": "Name 19",
        "price": 7,
        "note": "note 19"
    },
    {
        "id": "20",
        "Name": "Name 20",
        "price": 28,
        "note": "note 20"
    },
    {
        "id": "21",
        "Name": "Name 21",
        "price": 39,
        "note": "note 21"
    },
    {
        "id": "22",
        "Name": "Name 22",
        "price": 20,
        "note": "note 22"
    },
    {
        "id": "23",
        "Name": "Name 23",
        "price": 74,
        "note": "note 23"
    },
    {
        "id": "24",
        "Name": "Name 24",
        "price": 83,
        "note": "note 24"
    },
    {
        "id": "25",
        "Name": "Name 25",
        "price": 67,
        "note": "note 25"
    },
    {
        "id": "26",
        "Name": "Name 26",
        "price": 46,
        "note": "note 26"
    },
    {
        "id": "27",
        "Name": "Name 27",
        "price": 49,
        "note": "note 27"
    },
    {
        "id": "28",
        "Name": "Name 28",
        "price": 76,
        "note": "note 28"
    },
    {
        "id": "29",
        "Name": "Name 29",
        "price": 58,
        "note": "note 29"
    },
    {
        "id": "30",
        "Name": "Name 30",
        "price": 67,
        "note": "note 30"
    },
    {
        "id": "31",
        "Name": "Name 31",
        "price": 26,
        "note": "note 31"
    },
    {
        "id": "32",
        "Name": "Name 32",
        "price": 56,
        "note": "note 32"
    },
    {
        "id": "33",
        "Name": "Name 33",
        "price": 45,
        "note": "note 33"
    },
    {
        "id": "34",
        "Name": "Name 34",
        "price": 46,
        "note": "note 34"
    },
    {
        "id": "35",
        "Name": "Name 35",
        "price": 27,
        "note": "note 35"
    },
    {
        "id": "36",
        "Name": "Name 36",
        "price": 37,
        "note": "note 36"
    }
]